<?xml version="1.0" encoding="UTF-8" standalone="no"?>
<!-- Created with Inkscape (http://www.inkscape.org/) -->

<svg
   xmlns:dc="http://purl.org/dc/elements/1.1/"
   xmlns:cc="http://creativecommons.org/ns#"
   xmlns:rdf="http://www.w3.org/1999/02/22-rdf-syntax-ns#"
   xmlns:svg="http://www.w3.org/2000/svg"
   xmlns="http://www.w3.org/2000/svg"
   xmlns:sodipodi="http://sodipodi.sourceforge.net/DTD/sodipodi-0.dtd"
   xmlns:inkscape="http://www.inkscape.org/namespaces/inkscape"
   width="118.90002"
   height="55.999996"
   viewBox="0 0 31.458965 14.816666"
   version="1.1"
   id="svg8"
   inkscape:version="0.92.3 (2405546, 2018-03-11)"
   sodipodi:docname="code.svg">
  <defs
     id="defs2">
    <clipPath
       id="clipPath28">
      <path
         id="path4544"
         d="M 0,612 H 792 V 0 H 0 Z"
         inkscape:connector-curvature="0" />
    </clipPath>
    <style
       id="style6202">.cls-1{fill:#fc6d26;}.cls-2{fill:#e24329;}.cls-3{fill:#fca326;}</style>
  </defs>
  <sodipodi:namedview
     id="base"
     pagecolor="#ffffff"
     bordercolor="#666666"
     borderopacity="1.0"
     inkscape:pageopacity="0.0"
     inkscape:pageshadow="2"
     inkscape:zoom="8"
     inkscape:cx="70.326159"
     inkscape:cy="38.405819"
     inkscape:document-units="px"
     inkscape:current-layer="layer1"
     showgrid="false"
     fit-margin-bottom="0"
     fit-margin-top="0"
     fit-margin-left="0"
     fit-margin-right="6"
     units="px"
     inkscape:window-width="1948"
     inkscape:window-height="1249"
     inkscape:window-x="901"
     inkscape:window-y="61"
     inkscape:window-maximized="0" />
  <metadata
     id="metadata5">
    <rdf:RDF>
      <cc:Work
         rdf:about="">
        <dc:format>image/svg+xml</dc:format>
        <dc:type
           rdf:resource="http://purl.org/dc/dcmitype/StillImage" />
        <dc:title></dc:title>
      </cc:Work>
    </rdf:RDF>
  </metadata>
  <g
     inkscape:label="Laag 1"
     inkscape:groupmode="layer"
     id="layer1"
     transform="translate(0,-282.18335)">
    <rect
       style="fill:#2c3e50;fill-opacity:1;stroke:none;stroke-width:4.44654131;stroke-linejoin:round;stroke-miterlimit:4;stroke-dasharray:none;stroke-opacity:1"
       id="rect4540"
       width="29.871464"
       height="14.816667"
       x="0"
       y="282.18335"
       rx="2.1166668"
       ry="2.1166668" />
    <g
       aria-label="LIVE DEMO"
       style="font-style:normal;font-variant:normal;font-weight:500;font-stretch:normal;font-size:4.23333359px;line-height:1.25;font-family:Roboto;-inkscape-font-specification:'Roboto, Medium';font-variant-ligatures:normal;font-variant-caps:normal;font-variant-numeric:normal;font-feature-settings:normal;text-align:start;letter-spacing:0px;word-spacing:0px;writing-mode:lr-tb;text-anchor:start;fill:#ffffff;fill-opacity:1;stroke:none;stroke-width:0.26458335"
       id="text4674">
      <text
         xml:space="preserve"
         style="font-style:normal;font-variant:normal;font-weight:300;font-stretch:normal;font-size:3.17500019px;line-height:1.25;font-family:Roboto;-inkscape-font-specification:'Roboto, Light';font-variant-ligatures:normal;font-variant-caps:normal;font-variant-numeric:normal;font-feature-settings:normal;text-align:start;letter-spacing:0px;word-spacing:0px;writing-mode:lr-tb;text-anchor:start;fill:#ffffff;fill-opacity:0.94117647;stroke:none;stroke-width:0.07000434"
         x="15.279688"
         y="288.34827"
         id="text6929"><tspan
           sodipodi:role="line"
           id="tspan6927"
           x="15.279688"
           y="288.34827"
           style="font-style:normal;font-variant:normal;font-weight:300;font-stretch:normal;font-size:3.17500019px;font-family:Roboto;-inkscape-font-specification:'Roboto, Light';font-variant-ligatures:normal;font-variant-caps:normal;font-variant-numeric:normal;font-feature-settings:normal;text-align:start;writing-mode:lr-tb;text-anchor:start;fill:#ffffff;fill-opacity:0.94117647;stroke-width:0.07000434">get the</tspan></text>
      <text
         xml:space="preserve"
         style="font-style:normal;font-weight:normal;font-size:9.37757778px;line-height:1.25;font-family:sans-serif;letter-spacing:0px;word-spacing:0px;fill:#ffffff;fill-opacity:1;stroke:none;stroke-width:0.23443945"
         x="15.244344"
         y="293.2084"
         id="text6933"><tspan
           sodipodi:role="line"
           id="tspan6931"
           x="15.244344"
           y="293.2084"
           style="font-style:normal;font-variant:normal;font-weight:500;font-stretch:normal;font-size:4.21991014px;font-family:Roboto;-inkscape-font-specification:'Roboto, Medium';font-variant-ligatures:normal;font-variant-caps:normal;font-variant-numeric:normal;font-feature-settings:normal;text-align:start;writing-mode:lr-tb;text-anchor:start;fill:#ffffff;fill-opacity:1;stroke-width:0.23443945">CODE</tspan></text>
    </g>
    <g
       id="g6246"
       transform="matrix(0.02351309,0,0,0.02351309,1.017793,283.42431)">
      <g
         id="g44">
        <path
           d="M 461.17,301.83 442.26,243.71 404.84,128.43 a 6.47,6.47 0 0 0 -12.27,0 L 355.15,243.64 H 230.82 L 193.4,128.43 a 6.46,6.46 0 0 0 -12.26,0 l -37.36,115.21 -18.91,58.19 a 12.88,12.88 0 0 0 4.66,14.39 L 293,435 456.44,316.22 a 12.9,12.9 0 0 0 4.73,-14.39"
           class="cls-1"
           id="path46"
           inkscape:connector-curvature="0"
           style="fill:#fc6d26" />
      </g>
      <g
         id="g48">
        <path
           d="m 293,434.91 v 0 L 355.16,243.63 H 230.87 Z"
           class="cls-2"
           id="path50"
           inkscape:connector-curvature="0"
           style="fill:#e24329" />
      </g>
      <g
         id="g56">
        <path
           d="M 293,434.91 230.82,243.63 h -87 z"
           class="cls-1"
           id="path58"
           inkscape:connector-curvature="0"
           style="fill:#fc6d26" />
      </g>
      <g
         id="g64">
        <path
           d="m 143.75,243.69 v 0 l -18.91,58.12 a 12.88,12.88 0 0 0 4.66,14.39 L 293,435 Z"
           class="cls-3"
           id="path66"
           inkscape:connector-curvature="0"
           style="fill:#fca326" />
      </g>
      <g
         id="g72">
        <path
           d="m 143.78,243.69 h 87.11 L 193.4,128.49 a 6.47,6.47 0 0 0 -12.27,0 z"
           class="cls-2"
           id="path74"
           inkscape:connector-curvature="0"
           style="fill:#e24329" />
      </g>
      <g
         id="g76">
        <path
           d="M 293,434.91 355.16,243.63 H 442.3 Z"
           class="cls-1"
           id="path78"
           inkscape:connector-curvature="0"
           style="fill:#fc6d26" />
      </g>
      <g
         id="g80">
        <path
           d="m 442.24,243.69 v 0 l 18.91,58.12 a 12.85,12.85 0 0 1 -4.66,14.39 L 293,434.91 442.2,243.69 Z"
           class="cls-3"
           id="path82"
           inkscape:connector-curvature="0"
           style="fill:#fca326" />
      </g>
      <g
         id="g84">
        <path
           d="m 442.28,243.69 h -87.1 l 37.42,-115.2 a 6.46,6.46 0 0 1 12.26,0 z"
           class="cls-2"
           id="path86"
           inkscape:connector-curvature="0"
           style="fill:#e24329" />
      </g>
    </g>
  </g>
</svg>
