<?xml version="1.0" encoding="UTF-8" standalone="no"?>
<!-- Created with Inkscape (http://www.inkscape.org/) -->

<svg
   xmlns:dc="http://purl.org/dc/elements/1.1/"
   xmlns:cc="http://creativecommons.org/ns#"
   xmlns:rdf="http://www.w3.org/1999/02/22-rdf-syntax-ns#"
   xmlns:svg="http://www.w3.org/2000/svg"
   xmlns="http://www.w3.org/2000/svg"
   xmlns:sodipodi="http://sodipodi.sourceforge.net/DTD/sodipodi-0.dtd"
   xmlns:inkscape="http://www.inkscape.org/namespaces/inkscape"
   width="158"
   height="55.999996"
   viewBox="0 0 41.804169 14.816666"
   version="1.1"
   id="svg8"
   inkscape:version="0.92.3 (2405546, 2018-03-11)"
   sodipodi:docname="demo.svg">
  <defs
     id="defs2">
    <clipPath
       id="clipPath28">
      <path
         id="path4544"
         d="M 0,612 H 792 V 0 H 0 Z"
         inkscape:connector-curvature="0" />
    </clipPath>
  </defs>
  <sodipodi:namedview
     id="base"
     pagecolor="#ffffff"
     bordercolor="#666666"
     borderopacity="1.0"
     inkscape:pageopacity="0.0"
     inkscape:pageshadow="2"
     inkscape:zoom="1"
     inkscape:cx="-408.90722"
     inkscape:cy="32.000004"
     inkscape:document-units="px"
     inkscape:current-layer="layer1"
     showgrid="false"
     fit-margin-bottom="0"
     fit-margin-top="0"
     fit-margin-left="0"
     fit-margin-right="6"
     units="px"
     inkscape:window-width="1948"
     inkscape:window-height="1377"
     inkscape:window-x="379"
     inkscape:window-y="166"
     inkscape:window-maximized="0" />
  <metadata
     id="metadata5">
    <rdf:RDF>
      <cc:Work
         rdf:about="">
        <dc:format>image/svg+xml</dc:format>
        <dc:type
           rdf:resource="http://purl.org/dc/dcmitype/StillImage" />
        <dc:title></dc:title>
      </cc:Work>
    </rdf:RDF>
  </metadata>
  <g
     inkscape:label="Laag 1"
     inkscape:groupmode="layer"
     id="layer1"
     transform="translate(0,-282.18335)">
    <rect
       style="fill:#2c3e50;fill-opacity:1;stroke:none;stroke-width:5.15937519;stroke-linejoin:round;stroke-miterlimit:4;stroke-dasharray:none;stroke-opacity:1"
       id="rect4540"
       width="40.216667"
       height="14.816667"
       x="0"
       y="282.18335"
       rx="2.1166668"
       ry="2.1166668" />
    <g
       id="g4625"
       transform="matrix(0.02116748,0,0,-0.02116748,-0.69877363,301.30171)">
      <g
         id="g4623"
         transform="matrix(2.1748,0,0,2.1628,-4.4869,-120.45)">
        <g
           id="g4621"
           clip-path="url(#clipPath28)">
          <g
             id="g4551"
             transform="translate(230.8,344.53)">
            <path
               id="path4549"
               d="M 0,0 41.712,24.083 20.856,36.124 -0.001,48.165 Z"
               inkscape:connector-curvature="0"
               style="fill:#88288f;fill-rule:evenodd" />
          </g>
          <g
             id="g4555"
             transform="translate(189.09,320.45)">
            <path
               id="path4553"
               d="M 0,0 41.713,24.083 0,48.166 Z"
               inkscape:connector-curvature="0"
               style="fill:#ca1f25;fill-rule:evenodd" />
          </g>
          <g
             id="g4559"
             transform="translate(209.94,356.57)">
            <path
               id="path4557"
               d="M 0,0 20.856,-12.042 20.855,36.123 0,24.082 -20.856,12.042 Z"
               inkscape:connector-curvature="0"
               style="fill:#ce3d95;fill-rule:evenodd" />
          </g>
          <g
             id="g4563"
             transform="translate(189.09,320.45)">
            <path
               id="path4561"
               d="M 0,0 V 48.165 L -41.711,24.083 Z"
               inkscape:connector-curvature="0"
               style="fill:#da1e25;fill-rule:evenodd" />
          </g>
          <g
             id="g4567"
             transform="translate(147.37,344.53)">
            <path
               id="path4565"
               d="M 0,0 41.712,24.083 -0.001,48.165 Z"
               inkscape:connector-curvature="0"
               style="fill:#ed2524;fill-rule:evenodd" />
          </g>
          <g
             id="g4571"
             transform="translate(147.37,344.53)">
            <path
               id="path4569"
               d="M 0,0 -0.001,25.777 V 48.165 L -41.713,24.083 Z"
               inkscape:connector-curvature="0"
               style="fill:#f06022;fill-rule:evenodd" />
          </g>
          <g
             id="g4575"
             transform="translate(275.3,363.8)">
            <path
               id="path4573"
               d="M 0,0 -41.712,-24.083 0,-48.166 v 24.083 z"
               inkscape:connector-curvature="0"
               style="fill:#006493;fill-rule:evenodd" />
          </g>
          <g
             id="g4579"
             transform="translate(275.3,315.64)">
            <path
               id="path4577"
               d="m 0,0 -41.711,24.083 v -48.165 l 20.855,12.04 z"
               inkscape:connector-curvature="0"
               style="fill:#007fb4;fill-rule:evenodd" />
          </g>
          <g
             id="g4583"
             transform="translate(233.59,315.64)">
            <path
               id="path4581"
               d="M 0,0 V 24.082 L -41.713,0 0,-24.083 Z"
               inkscape:connector-curvature="0"
               style="fill:#00a1b6;fill-rule:evenodd" />
          </g>
          <g
             id="g4587"
             transform="translate(191.88,315.64)">
            <path
               id="path4585"
               d="m 0,0 0.001,-48.165 41.712,24.083 -20.857,12.041 z"
               inkscape:connector-curvature="0"
               style="fill:#00b0d4;fill-rule:evenodd" />
          </g>
          <g
             id="g4591"
             transform="translate(212.73,279.51)">
            <path
               id="path4589"
               d="M 0,0 -20.855,-12.041 20.856,-36.124 V 12.042 Z"
               inkscape:connector-curvature="0"
               style="fill:#4ac4dc;fill-rule:evenodd" />
          </g>
          <g
             id="g4595"
             transform="translate(233.59,243.39)">
            <path
               id="path4593"
               d="m 0,0 -22.581,13.037 -19.13,11.046 -0.001,-48.166 20.856,12.042 z"
               inkscape:connector-curvature="0"
               style="fill:#2cb89a;fill-rule:evenodd" />
          </g>
          <g
             id="g4599"
             transform="translate(144.59,339.73)">
            <path
               id="path4597"
               d="M 0,0 -41.713,24.083 V -24.083 Z"
               inkscape:connector-curvature="0"
               style="fill:#f37b20;fill-rule:evenodd" />
          </g>
          <g
             id="g4603"
             transform="translate(144.59,339.73)">
            <path
               id="path4601"
               d="M 0,0 -41.713,-24.083 -20.857,-36.125 0,-48.166 Z"
               inkscape:connector-curvature="0"
               style="fill:#f6921e;fill-rule:evenodd" />
          </g>
          <g
             id="g4607"
             transform="translate(144.59,339.73)">
            <path
               id="path4605"
               d="M 0,0 -0.001,-24.083 0,-48.166 41.711,-24.083 Z"
               inkscape:connector-curvature="0"
               style="fill:#ffcc07;fill-rule:evenodd" />
          </g>
          <g
             id="g4611"
             transform="translate(165.44,303.6)">
            <path
               id="path4609"
               d="M 0,0 -20.856,-12.041 20.857,-36.123 20.856,12.041 Z"
               inkscape:connector-curvature="0"
               style="fill:#ffe700;fill-rule:evenodd" />
          </g>
          <g
             id="g4615"
             transform="translate(186.3,219.31)">
            <path
               id="path4613"
               d="M 0,0 0.001,48.166 -41.712,24.082 -20.856,12.041 Z"
               inkscape:connector-curvature="0"
               style="fill:#a0cc3a;fill-rule:evenodd" />
          </g>
          <g
             id="g4619"
             transform="translate(144.59,243.4)">
            <path
               id="path4617"
               d="M 0,0 19.506,11.263 41.713,24.084 20.856,36.124 0,48.166 V 24.083 Z"
               inkscape:connector-curvature="0"
               style="fill:#b7d334;fill-rule:evenodd" />
          </g>
        </g>
      </g>
    </g>
    <g
       aria-label="LIVE DEMO"
       style="font-style:normal;font-variant:normal;font-weight:500;font-stretch:normal;font-size:4.23333359px;line-height:1.25;font-family:Roboto;-inkscape-font-specification:'Roboto, Medium';font-variant-ligatures:normal;font-variant-caps:normal;font-variant-numeric:normal;font-feature-settings:normal;text-align:start;letter-spacing:0px;word-spacing:0px;writing-mode:lr-tb;text-anchor:start;fill:#ffffff;fill-opacity:1;stroke:none;stroke-width:0.26458335"
       id="text4674">
      <path
         d="m 16.188118,292.78396 h 1.382861 v 0.40101 h -1.885156 v -3.00964 h 0.502295 z"
         style="font-style:normal;font-variant:normal;font-weight:500;font-stretch:normal;font-size:4.23333359px;font-family:Roboto;-inkscape-font-specification:'Roboto, Medium';font-variant-ligatures:normal;font-variant-caps:normal;font-variant-numeric:normal;font-feature-settings:normal;text-align:start;writing-mode:lr-tb;text-anchor:start;fill:#ffffff;stroke-width:0.26458335"
         id="path6477"
         inkscape:connector-curvature="0" />
      <path
         d="m 18.507356,293.18497 h -0.502295 v -3.00964 h 0.502295 z"
         style="font-style:normal;font-variant:normal;font-weight:500;font-stretch:normal;font-size:4.23333359px;font-family:Roboto;-inkscape-font-specification:'Roboto, Medium';font-variant-ligatures:normal;font-variant-caps:normal;font-variant-numeric:normal;font-feature-settings:normal;text-align:start;writing-mode:lr-tb;text-anchor:start;fill:#ffffff;stroke-width:0.26458335"
         id="path6479"
         inkscape:connector-curvature="0" />
      <path
         d="m 20.146533,292.39742 0.05374,0.20877 h 0.0124 l 0.05168,-0.20464 0.719336,-2.22622 h 0.535368 l -1.07487,3.00964 h -0.47749 l -1.072803,-3.00964 h 0.535368 z"
         style="font-style:normal;font-variant:normal;font-weight:500;font-stretch:normal;font-size:4.23333359px;font-family:Roboto;-inkscape-font-specification:'Roboto, Medium';font-variant-ligatures:normal;font-variant-caps:normal;font-variant-numeric:normal;font-feature-settings:normal;text-align:start;writing-mode:lr-tb;text-anchor:start;fill:#ffffff;stroke-width:0.26458335"
         id="path6481"
         inkscape:connector-curvature="0" />
      <path
         d="m 23.697737,291.83104 h -1.316715 v 0.95292 h 1.527555 v 0.40101 h -2.02985 v -3.00964 h 2.015381 v 0.40308 h -1.513086 v 0.84956 h 1.316715 z"
         style="font-style:normal;font-variant:normal;font-weight:500;font-stretch:normal;font-size:4.23333359px;font-family:Roboto;-inkscape-font-specification:'Roboto, Medium';font-variant-ligatures:normal;font-variant-caps:normal;font-variant-numeric:normal;font-feature-settings:normal;text-align:start;writing-mode:lr-tb;text-anchor:start;fill:#ffffff;stroke-width:0.26458335"
         id="path6483"
         inkscape:connector-curvature="0" />
      <path
         d="m 25.392724,293.18497 v -3.00964 h 0.975651 q 0.572575,0 0.930176,0.3576 0.359668,0.3576 0.359668,0.91984 v 0.45682 q 0,0.56431 -0.359668,0.91984 -0.357601,0.35554 -0.930176,0.35554 z m 0.502295,-2.60656 v 2.20555 h 0.458887 q 0.374137,0 0.587044,-0.24391 0.214974,-0.24392 0.214974,-0.63046 v -0.46095 q 0,-0.38241 -0.214974,-0.62632 -0.212907,-0.24391 -0.587044,-0.24391 z"
         style="font-style:normal;font-variant:normal;font-weight:500;font-stretch:normal;font-size:4.23333359px;font-family:Roboto;-inkscape-font-specification:'Roboto, Medium';font-variant-ligatures:normal;font-variant-caps:normal;font-variant-numeric:normal;font-feature-settings:normal;text-align:start;writing-mode:lr-tb;text-anchor:start;fill:#ffffff;stroke-width:0.26458335"
         id="path6485"
         inkscape:connector-curvature="0" />
      <path
         d="m 29.998128,291.83104 h -1.316716 v 0.95292 h 1.527556 v 0.40101 h -2.029851 v -3.00964 h 2.015381 v 0.40308 h -1.513086 v 0.84956 h 1.316716 z"
         style="font-style:normal;font-variant:normal;font-weight:500;font-stretch:normal;font-size:4.23333359px;font-family:Roboto;-inkscape-font-specification:'Roboto, Medium';font-variant-ligatures:normal;font-variant-caps:normal;font-variant-numeric:normal;font-feature-settings:normal;text-align:start;writing-mode:lr-tb;text-anchor:start;fill:#ffffff;stroke-width:0.26458335"
         id="path6487"
         inkscape:connector-curvature="0" />
      <path
         d="m 31.285905,290.17533 0.866097,2.31511 h 0.0124 l 0.868164,-2.31511 h 0.651123 v 3.00964 h -0.502295 v -1.02526 l 0.04961,-1.30432 -0.0124,-0.002 -0.892969,2.33164 h -0.33693 l -0.888835,-2.32544 -0.0124,0.002 0.04961,1.29812 v 1.02526 h -0.502295 v -3.00964 z"
         style="font-style:normal;font-variant:normal;font-weight:500;font-stretch:normal;font-size:4.23333359px;font-family:Roboto;-inkscape-font-specification:'Roboto, Medium';font-variant-ligatures:normal;font-variant-caps:normal;font-variant-numeric:normal;font-feature-settings:normal;text-align:start;writing-mode:lr-tb;text-anchor:start;fill:#ffffff;stroke-width:0.26458335"
         id="path6489"
         inkscape:connector-curvature="0" />
      <path
         d="m 36.693327,291.95093 q 0,0.55191 -0.347266,0.91571 -0.345198,0.36174 -0.897103,0.36174 -0.541569,0 -0.880566,-0.36174 -0.33693,-0.3638 -0.33693,-0.91571 v -0.54157 q 0,-0.54983 0.33693,-0.91363 0.338997,-0.36381 0.878499,-0.36381 0.551905,0 0.89917,0.36381 0.347266,0.3638 0.347266,0.91363 z m -0.500228,-0.5457 q 0,-0.3762 -0.202572,-0.61805 -0.200504,-0.24185 -0.543636,-0.24185 -0.330729,0 -0.522965,0.24185 -0.192237,0.24185 -0.192237,0.61805 v 0.5457 q 0,0.38034 0.192237,0.62426 0.192236,0.24184 0.525032,0.24184 0.345199,0 0.543637,-0.24184 0.200504,-0.24185 0.200504,-0.62426 z"
         style="font-style:normal;font-variant:normal;font-weight:500;font-stretch:normal;font-size:4.23333359px;font-family:Roboto;-inkscape-font-specification:'Roboto, Medium';font-variant-ligatures:normal;font-variant-caps:normal;font-variant-numeric:normal;font-feature-settings:normal;text-align:start;writing-mode:lr-tb;text-anchor:start;fill:#ffffff;stroke-width:0.26458335"
         id="path6491"
         inkscape:connector-curvature="0" />
    </g>
    <g
       aria-label="try the"
       style="font-style:normal;font-variant:normal;font-weight:300;font-stretch:normal;font-size:3.43958354px;line-height:1.25;font-family:Roboto;-inkscape-font-specification:'Roboto, Light';font-variant-ligatures:normal;font-variant-caps:normal;font-variant-numeric:normal;font-feature-settings:normal;text-align:start;letter-spacing:0px;word-spacing:0px;writing-mode:lr-tb;text-anchor:start;fill:#ffffff;fill-opacity:1;stroke:none;stroke-width:0.26458335"
       id="text4678">
      <path
         d="m 15.794644,286.05248 v 0.46522 h 0.399717 v 0.16459 h -0.399717 v 1.18403 q 0,0.17803 0.06382,0.25361 0.0655,0.0739 0.172987,0.0739 0.0487,0 0.09405,-0.003 0.04702,-0.005 0.107487,-0.0151 l 0.03023,0.14947 q -0.05039,0.0218 -0.122603,0.0336 -0.07222,0.0118 -0.144435,0.0118 -0.191462,0 -0.298949,-0.12092 -0.105807,-0.12093 -0.105807,-0.38293 v -1.18403 H 15.27736 v -0.16459 h 0.314064 v -0.46522 z"
         style="font-style:normal;font-variant:normal;font-weight:300;font-stretch:normal;font-size:3.43958354px;font-family:Roboto;-inkscape-font-specification:'Roboto, Light';font-variant-ligatures:normal;font-variant-caps:normal;font-variant-numeric:normal;font-feature-settings:normal;text-align:start;writing-mode:lr-tb;text-anchor:start;fill:#ffffff;stroke-width:0.26458335"
         id="path6464"
         inkscape:connector-curvature="0" />
      <path
         d="m 17.457333,286.69068 -0.149474,-0.0101 q -0.189782,0 -0.312384,0.10748 -0.120923,0.10581 -0.172987,0.29224 v 1.25457 H 16.62095 v -1.8172 h 0.176346 l 0.02519,0.30231 v 0.0202 q 0.07894,-0.16795 0.211615,-0.262 0.132679,-0.0941 0.315743,-0.0941 0.03863,0 0.0739,0.007 0.03695,0.005 0.06046,0.0118 z"
         style="font-style:normal;font-variant:normal;font-weight:300;font-stretch:normal;font-size:3.43958354px;font-family:Roboto;-inkscape-font-specification:'Roboto, Light';font-variant-ligatures:normal;font-variant-caps:normal;font-variant-numeric:normal;font-feature-settings:normal;text-align:start;writing-mode:lr-tb;text-anchor:start;fill:#ffffff;stroke-width:0.26458335"
         id="path6466"
         inkscape:connector-curvature="0" />
      <path
         d="m 18.339062,287.84281 0.06382,0.21665 h 0.01008 l 0.549191,-1.54176 h 0.225051 l -0.789357,2.10775 q -0.07054,0.18474 -0.183064,0.31406 -0.112525,0.12932 -0.329179,0.12932 -0.03527,0 -0.08565,-0.008 -0.05038,-0.007 -0.0739,-0.0151 l 0.02351,-0.16795 q 0.02015,0.003 0.06382,0.007 0.04535,0.005 0.0655,0.005 0.131,0 0.209936,-0.0941 0.07893,-0.0924 0.134358,-0.23849 l 0.09573,-0.2452 -0.702024,-1.79369 h 0.223371 z"
         style="font-style:normal;font-variant:normal;font-weight:300;font-stretch:normal;font-size:3.43958354px;font-family:Roboto;-inkscape-font-specification:'Roboto, Light';font-variant-ligatures:normal;font-variant-caps:normal;font-variant-numeric:normal;font-feature-settings:normal;text-align:start;writing-mode:lr-tb;text-anchor:start;fill:#ffffff;stroke-width:0.26458335"
         id="path6468"
         inkscape:connector-curvature="0" />
      <path
         d="m 20.665147,286.05248 v 0.46522 h 0.399718 v 0.16459 h -0.399718 v 1.18403 q 0,0.17803 0.06382,0.25361 0.0655,0.0739 0.172987,0.0739 0.0487,0 0.09405,-0.003 0.04702,-0.005 0.107487,-0.0151 l 0.03023,0.14947 q -0.05038,0.0218 -0.122602,0.0336 -0.07222,0.0118 -0.144435,0.0118 -0.191462,0 -0.298949,-0.12092 -0.105807,-0.12093 -0.105807,-0.38293 v -1.18403 h -0.314064 v -0.16459 h 0.314064 v -0.46522 z"
         style="font-style:normal;font-variant:normal;font-weight:300;font-stretch:normal;font-size:3.43958354px;font-family:Roboto;-inkscape-font-specification:'Roboto, Light';font-variant-ligatures:normal;font-variant-caps:normal;font-variant-numeric:normal;font-feature-settings:normal;text-align:start;writing-mode:lr-tb;text-anchor:start;fill:#ffffff;stroke-width:0.26458335"
         id="path6470"
         inkscape:connector-curvature="0" />
      <path
         d="m 21.692992,286.8284 q 0.09069,-0.16291 0.241846,-0.2536 0.151153,-0.0907 0.352691,-0.0907 0.287192,0 0.440025,0.17802 0.154513,0.17803 0.154513,0.55255 v 1.12022 h -0.201539 v -1.12357 q 0,-0.29559 -0.117563,-0.42324 -0.115885,-0.12932 -0.320782,-0.12932 -0.206576,0 -0.345974,0.10917 -0.137717,0.10749 -0.203217,0.28719 v 1.27977 h -0.201538 v -2.62 h 0.201538 z"
         style="font-style:normal;font-variant:normal;font-weight:300;font-stretch:normal;font-size:3.43958354px;font-family:Roboto;-inkscape-font-specification:'Roboto, Light';font-variant-ligatures:normal;font-variant-caps:normal;font-variant-numeric:normal;font-feature-settings:normal;text-align:start;writing-mode:lr-tb;text-anchor:start;fill:#ffffff;stroke-width:0.26458335"
         id="path6472"
         inkscape:connector-curvature="0" />
      <path
         d="m 24.087936,288.37017 q -0.340935,0 -0.567666,-0.25192 -0.22505,-0.25193 -0.22505,-0.63821 v -0.0924 q 0,-0.38964 0.223371,-0.6466 0.225051,-0.25696 0.544153,-0.25696 0.334217,0 0.525678,0.21161 0.191462,0.21162 0.191462,0.56431 v 0.17131 h -1.283126 v 0.0487 q 0,0.30735 0.16291,0.51392 0.16291,0.20658 0.428268,0.20658 0.188102,0 0.320782,-0.0521 0.132679,-0.0521 0.22673,-0.14948 l 0.08565,0.13772 q -0.102449,0.10749 -0.26032,0.17131 -0.156192,0.0621 -0.372846,0.0621 z m -0.02519,-1.71475 q -0.223372,0 -0.374525,0.1713 -0.151154,0.16963 -0.176346,0.42659 l 0.0034,0.008 h 1.064793 v -0.0504 q 0,-0.23681 -0.139397,-0.39636 -0.139397,-0.15955 -0.377884,-0.15955 z"
         style="font-style:normal;font-variant:normal;font-weight:300;font-stretch:normal;font-size:3.43958354px;font-family:Roboto;-inkscape-font-specification:'Roboto, Light';font-variant-ligatures:normal;font-variant-caps:normal;font-variant-numeric:normal;font-feature-settings:normal;text-align:start;writing-mode:lr-tb;text-anchor:start;fill:#ffffff;stroke-width:0.26458335"
         id="path6474"
         inkscape:connector-curvature="0" />
    </g>
  </g>
</svg>
