<svg class="st19" width="5.8069in" height="5.0009in" color-interpolation-filters="sRGB" version="1.1" viewBox="0 0 418.1 360.06" xml:space="preserve" xmlns="http://www.w3.org/2000/svg" xmlns:xlink="http://www.w3.org/1999/xlink">
	<style type="text/css">
	<![CDATA[
		.st1 {visibility:visible}
		.st2 {fill:#bdd0e9;fill-opacity:0.25;filter:url(#filter_2);stroke:#bdd0e9;stroke-opacity:0.25}
		.st3 {fill:url(#grad0-7);stroke:#8a98ab;stroke-width:0.75}
		.st4 {fill:#feffff;font-family:Arial;font-size:0.833336em}
		.st5 {fill:#41719c;fill-opacity:0.25;filter:url(#filter_2);stroke:#41719c;stroke-opacity:0.25}
		.st6 {fill:url(#grad0-15);stroke:#2d5171;stroke-width:0.75}
		.st7 {fill:#fec000;fill-opacity:0.25;filter:url(#filter_2);stroke:#fec000;stroke-opacity:0.25}
		.st8 {fill:url(#grad0-30);stroke:#ba8c00;stroke-width:0.75}
		.st9 {fill:#70ad47;fill-opacity:0.25;filter:url(#filter_2);stroke:#70ad47;stroke-opacity:0.25}
		.st10 {fill:url(#grad0-59);stroke:#507e31;stroke-width:0.75}
		.st11 {stroke:#41719c;stroke-dasharray:3,3;stroke-linecap:round;stroke-linejoin:round;stroke-width:1}
		.st12 {fill:url(#grad0-105);stroke:#386288;stroke-width:0.75}
		.st13 {marker-end:url(#mrkr5-114);stroke:#fec000;stroke-dasharray:3,3;stroke-linecap:round;stroke-linejoin:round;stroke-width:1}
		.st14 {fill:#fec000;fill-opacity:1;stroke:#fec000;stroke-opacity:1;stroke-width:0.28409090909091}
		.st15 {marker-start:url(#mrkr5-136);stroke:#41719c;stroke-dasharray:3,3;stroke-linecap:round;stroke-linejoin:round;stroke-width:1}
		.st16 {fill:#41719c;fill-opacity:1;stroke:#41719c;stroke-opacity:1;stroke-width:0.28409090909091}
		.st17 {fill:none;stroke:none;stroke-width:0.25}
		.st18 {fill:#41719c;font-family:Arial;font-size:0.833336em}
		.st19 {fill:none;fill-rule:evenodd;font-size:12px;overflow:visible;stroke-linecap:square;stroke-miterlimit:3}
	]]>
	</style>
	<defs id="Patterns_And_Gradients">
		<linearGradient id="grad0-7" gradientTransform="rotate(250 .5 .5)">
			<stop stop-color="#a6b6cd" offset="0"/>
			<stop stop-color="#a6b6cd" offset=".48"/>
			<stop stop-color="#bdd0e9" offset=".82"/>
		</linearGradient>
		<linearGradient id="grad0-15" gradientTransform="rotate(250 .5 .5)">
			<stop stop-color="#386288" offset="0"/>
			<stop stop-color="#386288" offset=".48"/>
			<stop stop-color="#41719c" offset=".82"/>
		</linearGradient>
		<linearGradient id="grad0-30" gradientTransform="rotate(250 .5 .5)">
			<stop stop-color="#dfa800" offset="0"/>
			<stop stop-color="#dfa800" offset=".48"/>
			<stop stop-color="#fec000" offset=".82"/>
		</linearGradient>
		<linearGradient id="grad0-59" gradientTransform="rotate(250 .5 .5)">
			<stop stop-color="#61973d" offset="0"/>
			<stop stop-color="#61973d" offset=".48"/>
			<stop stop-color="#70ad47" offset=".82"/>
		</linearGradient>
		<linearGradient id="grad0-105" gradientTransform="rotate(60 .5 .5)">
			<stop stop-color="#e8ebef" offset="0"/>
			<stop stop-color="#f4f5f7" offset=".24"/>
			<stop stop-color="#feffff" offset=".54"/>
		</linearGradient>
	</defs>
	<defs id="Markers">
		<g id="lend5">
			<path d="m2 1-2-1 1.9812-0.99339c-0.30944 0.62887-0.30816 1.366 0.00348 1.9938"/>
		</g>
		<marker id="mrkr5-114" class="st14" overflow="visible" orient="auto" refX="-6.16">
			<use transform="scale(-3.52)" xlink:href="#lend5"/>
		</marker>
		<marker id="mrkr5-136" class="st16" overflow="visible" orient="auto" refX="5.8">
			<use transform="scale(3.52)" xlink:href="#lend5"/>
		</marker>
	</defs>
	<defs id="Filters">
		<filter id="filter_2">
			<feGaussianBlur stdDeviation="2"/>
		</filter>
	</defs>
	<g>
		<title>Pagina-1</title>
		<g transform="translate(3.0294 -218.63)">
			<title>Rechthoek</title>
			<desc>Cluster</desc>
			<g class="st1" transform="translate(.3456 1.9728)">
				<rect class="st2" y="247.67" width="106.72" height="112.39"/>
			</g>
			<rect class="st3" y="247.67" width="106.72" height="112.39"/>
			<text class="st4" x="37.52" y="260.67">Cluster</text>
		</g>
		<g transform="translate(13.376 -275.32)">
			<title>Rechthoek.2</title>
			<desc>Node</desc>
			<g class="st1" transform="translate(.3456 1.9728)">
				<rect class="st5" y="326.05" width="86.882" height="34.016"/>
			</g>
			<rect class="st6" y="326.05" width="86.882" height="34.016"/>
			<text class="st4" x="31.49" y="346.06">Node</text>
		</g>
		<g transform="translate(13.376 -229.96)">
			<title>Rechthoek.3</title>
			<desc>Node</desc>
			<g class="st1" transform="translate(.3456 1.9728)">
				<rect class="st5" y="326.05" width="86.882" height="34.016"/>
			</g>
			<rect class="st6" y="326.05" width="86.882" height="34.016"/>
			<text class="st4" x="31.49" y="346.06">Node</text>
		</g>
		<g transform="translate(138.1 -38.521)">
			<title>Rechthoek.4</title>
			<desc>Branch</desc>
			<g class="st1" transform="translate(.3456 1.9728)">
				<rect class="st7" y="180.95" width="124.72" height="179.11"/>
			</g>
			<rect class="st8" y="180.95" width="124.72" height="179.11"/>
			<text class="st4" x="46.52" y="193.95">Branch</text>
		</g>
		<g transform="translate(147.1 -48.052)">
			<title>Rechthoek.5</title>
			<desc>Cluster</desc>
			<g class="st1" transform="translate(.3456 1.9728)">
				<rect class="st2" y="247.67" width="106.72" height="112.39"/>
			</g>
			<rect class="st3" y="247.67" width="106.72" height="112.39"/>
			<text class="st4" x="37.52" y="260.67">Cluster</text>
		</g>
		<g transform="translate(157.45 -104.74)">
			<title>Rechthoek.6</title>
			<desc>Node</desc>
			<g class="st1" transform="translate(.3456 1.9728)">
				<rect class="st5" y="326.05" width="86.882" height="34.016"/>
			</g>
			<rect class="st6" y="326.05" width="86.882" height="34.016"/>
			<text class="st4" x="31.49" y="346.06">Node</text>
		</g>
		<g transform="translate(157.45 -59.391)">
			<title>Rechthoek.7</title>
			<desc>Node</desc>
			<g class="st1" transform="translate(.3456 1.9728)">
				<rect class="st5" y="326.05" width="86.882" height="34.016"/>
			</g>
			<rect class="st6" y="326.05" width="86.882" height="34.016"/>
			<text class="st4" x="31.49" y="346.06">Node</text>
		</g>
		<g transform="translate(147.6 -172.28)">
			<title>Rechthoek.8</title>
			<desc>Condition</desc>
			<g class="st1" transform="translate(.3456 1.9728)">
				<rect class="st9" y="337.39" width="106.72" height="22.677"/>
			</g>
			<rect class="st10" y="337.39" width="106.72" height="22.677"/>
			<text class="st4" x="32.24" y="351.73">Condition</text>
		</g>
		<g transform="translate(285.5 -37.369)">
			<title>Rechthoek.9</title>
			<desc>Branch</desc>
			<g class="st1" transform="translate(.3456 1.9728)">
				<rect class="st7" y="180.95" width="124.72" height="179.11"/>
			</g>
			<rect class="st8" y="180.95" width="124.72" height="179.11"/>
			<text class="st4" x="46.52" y="193.95">Branch</text>
		</g>
		<g transform="translate(294.5 -46.9)">
			<title>Rechthoek.10</title>
			<desc>Cluster</desc>
			<g class="st1" transform="translate(.3456 1.9728)">
				<rect class="st2" y="247.67" width="106.72" height="112.39"/>
			</g>
			<rect class="st3" y="247.67" width="106.72" height="112.39"/>
			<text class="st4" x="37.52" y="260.67">Cluster</text>
		</g>
		<g transform="translate(304.85 -103.59)">
			<title>Rechthoek.11</title>
			<desc>Node</desc>
			<g class="st1" transform="translate(.3456 1.9728)">
				<rect class="st5" y="326.05" width="86.882" height="34.016"/>
			</g>
			<rect class="st6" y="326.05" width="86.882" height="34.016"/>
			<text class="st4" x="31.49" y="346.06">Node</text>
		</g>
		<g transform="translate(304.85 -58.239)">
			<title>Rechthoek.12</title>
			<desc>Node</desc>
			<g class="st1" transform="translate(.3456 1.9728)">
				<rect class="st5" y="326.05" width="86.882" height="34.016"/>
			</g>
			<rect class="st6" y="326.05" width="86.882" height="34.016"/>
			<text class="st4" x="31.49" y="346.06">Node</text>
		</g>
		<g transform="translate(295 -171.13)">
			<title>Rechthoek.13</title>
			<desc>Condition</desc>
			<g class="st1" transform="translate(.3456 1.9728)">
				<rect class="st9" y="337.39" width="106.72" height="22.677"/>
			</g>
			<rect class="st10" y="337.39" width="106.72" height="22.677"/>
			<text class="st4" x="32.24" y="351.73">Condition</text>
		</g>
		<g transform="translate(416.46 141.44) rotate(90)">
			<title>Blad.18</title>
			<path class="st11" d="m0 360.06h205.58"/>
		</g>
		<g transform="translate(416.46 17.705) rotate(90)">
			<title>Blad.22</title>
			<path class="st11" d="m0 360.06h11.34"/>
		</g>
		<g transform="translate(51.218 -342.36)">
			<title>Cirkel</title>
			<path class="st12" d="m0 354.89a5.1732 5.1732 0 0 1 10.35 0 5.1732 5.1732 0 1 1-10.35 0z"/>
		</g>
		<g transform="translate(51.218 -2.6977)">
			<title>Cirkel.24</title>
			<path class="st12" d="m0 354.89a5.1732 5.1732 0 0 1 10.35 0 5.1732 5.1732 0 1 1-10.35 0z"/>
		</g>
		<g transform="translate(560.53 114.08) rotate(90)">
			<title>Blad.25</title>
			<path class="st13" d="m0 360.06h22.18"/>
		</g>
		<g transform="translate(708.02 115.25) rotate(90.185)">
			<title>Blad.26</title>
			<path class="st13" d="m0 360.06h23.33"/>
		</g>
		<g transform="translate(109.75 -245.98)">
			<title>Blad.27</title>
			<path class="st13" d="m0 360.06h294.31"/>
		</g>
		<g transform="translate(560.53 321.54) rotate(90)">
			<title>Blad.28</title>
			<path class="st11" d="m0 360.06h28.34"/>
		</g>
		<g transform="translate(707.93 322.7) rotate(90)">
			<title>Blad.29</title>
			<path class="st11" d="m0 360.06h28.34"/>
		</g>
		<g transform="translate(60.114 -7.868) rotate(-.23084)">
			<title>Blad.30</title>
			<path class="st15" d="m5.8 360.06h0.36 280.14"/>
		</g>
		<g transform="translate(62.225 -333.98)">
			<title>Blad.31</title>
			<desc>Instance</desc>
			<rect class="st17" y="334.22" width="168.76" height="25.84"/>
			<text class="st18" x="4" y="350.14">Instance</text>
		</g>
	</g>
</svg>
